xof 0303txt 0032

Frame Root {
  FrameTransformMatrix {
     1.000000, 0.000000, 0.000000, 0.000000,
     0.000000, 0.000000, 1.000000, 0.000000,
     0.000000, 1.000000,-0.000000, 0.000000,
     0.000000, 0.000000, 0.000000, 1.000000;;
  }
  Frame Cylinder {
    FrameTransformMatrix {
      -1.015537, 0.000000, 0.000000, 0.000000,
       0.000000,-1.015537, 0.000000, 0.000000,
       0.000000, 0.000000,-1.015537, 0.000000,
       0.306786, 0.187114, 0.648485, 1.000000;;
    }
    Mesh { //Cylinder_001 Mesh
      632;
      -1.411296; 0.387577;-1.454980;,
      -1.460486; 0.392422;-1.454980;,
      -1.460486; 0.140282;-1.454980;,
      -1.636547; 0.392422;-0.950700;,
      -1.587357; 0.387577;-0.950700;,
      -1.460486; 0.140282;-0.950700;,
      -1.363996; 0.373229;-1.454980;,
      -1.411296; 0.387577;-1.454980;,
      -1.460486; 0.140282;-1.454980;,
      -1.587357; 0.387577;-0.950700;,
      -1.540057; 0.373229;-0.950700;,
      -1.460486; 0.140282;-0.950700;,
      -1.320405; 0.349929;-1.454980;,
      -1.363996; 0.373229;-1.454980;,
      -1.460486; 0.140282;-1.454980;,
      -1.540057; 0.373229;-0.950700;,
      -1.496465; 0.349928;-0.950700;,
      -1.460486; 0.140282;-0.950700;,
      -1.282196; 0.318572;-1.454980;,
      -1.320405; 0.349929;-1.454980;,
      -1.460486; 0.140282;-1.454980;,
      -1.496465; 0.349928;-0.950700;,
      -1.458257; 0.318571;-0.950700;,
      -1.460486; 0.140282;-0.950700;,
      -1.250839; 0.280363;-1.454980;,
      -1.282196; 0.318572;-1.454980;,
      -1.460486; 0.140282;-1.454980;,
      -1.458257; 0.318571;-0.950700;,
      -1.426900; 0.280363;-0.950700;,
      -1.460486; 0.140282;-0.950700;,
      -1.227539; 0.236772;-1.454980;,
      -1.250839; 0.280363;-1.454980;,
      -1.460486; 0.140282;-1.454980;,
      -1.426900; 0.280363;-0.950700;,
      -1.403600; 0.236771;-0.950700;,
      -1.460486; 0.140282;-0.950700;,
      -1.213191; 0.189472;-1.454980;,
      -1.227539; 0.236772;-1.454980;,
      -1.460486; 0.140282;-1.454980;,
      -1.403600; 0.236771;-0.950700;,
      -1.389252; 0.189471;-0.950700;,
      -1.460486; 0.140282;-0.950700;,
      -1.208346; 0.140282;-1.454980;,
      -1.213191; 0.189472;-1.454980;,
      -1.460486; 0.140282;-1.454980;,
      -1.389252; 0.189471;-0.950700;,
      -1.384407; 0.140281;-0.950700;,
      -1.460486; 0.140282;-0.950700;,
      -1.213191; 0.091092;-1.454980;,
      -1.208346; 0.140282;-1.454980;,
      -1.460486; 0.140282;-1.454980;,
      -1.384407; 0.140281;-0.950700;,
      -1.389252; 0.091091;-0.950700;,
      -1.460486; 0.140282;-0.950700;,
      -1.227539; 0.043792;-1.454980;,
      -1.213191; 0.091092;-1.454980;,
      -1.460486; 0.140282;-1.454980;,
      -1.389252; 0.091091;-0.950700;,
      -1.403600; 0.043791;-0.950700;,
      -1.460486; 0.140282;-0.950700;,
      -1.250839; 0.000200;-1.454980;,
      -1.227539; 0.043792;-1.454980;,
      -1.460486; 0.140282;-1.454980;,
      -1.403600; 0.043791;-0.950700;,
      -1.426901; 0.000200;-0.950700;,
      -1.460486; 0.140282;-0.950700;,
      -1.282196;-0.038008;-1.454980;,
      -1.250839; 0.000200;-1.454980;,
      -1.460486; 0.140282;-1.454980;,
      -1.426901; 0.000200;-0.950700;,
      -1.458258;-0.038008;-0.950700;,
      -1.460486; 0.140282;-0.950700;,
      -1.320405;-0.069365;-1.454980;,
      -1.282196;-0.038008;-1.454980;,
      -1.460486; 0.140282;-1.454980;,
      -1.458258;-0.038008;-0.950700;,
      -1.496466;-0.069365;-0.950700;,
      -1.460486; 0.140282;-0.950700;,
      -1.363996;-0.092665;-1.454980;,
      -1.320405;-0.069365;-1.454980;,
      -1.460486; 0.140282;-1.454980;,
      -1.496466;-0.069365;-0.950700;,
      -1.540058;-0.092665;-0.950700;,
      -1.460486; 0.140282;-0.950700;,
      -1.411296;-0.107014;-1.454980;,
      -1.363996;-0.092665;-1.454980;,
      -1.460486; 0.140282;-1.454980;,
      -1.540058;-0.092665;-0.950700;,
      -1.587357;-0.107014;-0.950700;,
      -1.460486; 0.140282;-0.950700;,
      -1.460486;-0.111858;-1.454980;,
      -1.411296;-0.107014;-1.454980;,
      -1.460486; 0.140282;-1.454980;,
      -1.587357;-0.107014;-0.950700;,
      -1.636547;-0.111858;-0.950700;,
      -1.460486; 0.140282;-0.950700;,
      -1.509676;-0.107014;-1.454980;,
      -1.460486;-0.111858;-1.454980;,
      -1.460486; 0.140282;-1.454980;,
      -1.636547;-0.111858;-0.950700;,
      -1.685737;-0.107014;-0.950700;,
      -1.460486; 0.140282;-0.950700;,
      -1.556976;-0.092665;-1.454980;,
      -1.509676;-0.107014;-1.454980;,
      -1.460486; 0.140282;-1.454980;,
      -1.685737;-0.107014;-0.950700;,
      -1.733037;-0.092666;-0.950700;,
      -1.460486; 0.140282;-0.950700;,
      -1.600568;-0.069365;-1.454980;,
      -1.556976;-0.092665;-1.454980;,
      -1.460486; 0.140282;-1.454980;,
      -1.733037;-0.092666;-0.950700;,
      -1.776629;-0.069366;-0.950700;,
      -1.460486; 0.140282;-0.950700;,
      -1.638776;-0.038008;-1.454980;,
      -1.600568;-0.069365;-1.454980;,
      -1.460486; 0.140282;-1.454980;,
      -1.776629;-0.069366;-0.950700;,
      -1.814837;-0.038009;-0.950700;,
      -1.460486; 0.140282;-0.950700;,
      -1.670133; 0.000200;-1.454980;,
      -1.638776;-0.038008;-1.454980;,
      -1.460486; 0.140282;-1.454980;,
      -1.814837;-0.038009;-0.950700;,
      -1.846194; 0.000199;-0.950700;,
      -1.460486; 0.140282;-0.950700;,
      -1.693433; 0.043792;-1.454980;,
      -1.670133; 0.000200;-1.454980;,
      -1.460486; 0.140282;-1.454980;,
      -1.846194; 0.000199;-0.950700;,
      -1.869494; 0.043791;-0.950700;,
      -1.460486; 0.140282;-0.950700;,
      -1.707782; 0.091092;-1.454980;,
      -1.693433; 0.043792;-1.454980;,
      -1.460486; 0.140282;-1.454980;,
      -1.869494; 0.043791;-0.950700;,
      -1.883843; 0.091091;-0.950700;,
      -1.460486; 0.140282;-0.950700;,
      -1.712626; 0.140282;-1.454980;,
      -1.707782; 0.091092;-1.454980;,
      -1.460486; 0.140282;-1.454980;,
      -1.883843; 0.091091;-0.950700;,
      -1.888688; 0.140281;-0.950700;,
      -1.460486; 0.140282;-0.950700;,
      -1.707781; 0.189472;-1.454980;,
      -1.712626; 0.140282;-1.454980;,
      -1.460486; 0.140282;-1.454980;,
      -1.888688; 0.140281;-0.950700;,
      -1.883843; 0.189471;-0.950700;,
      -1.460486; 0.140282;-0.950700;,
      -1.693433; 0.236772;-1.454980;,
      -1.707781; 0.189472;-1.454980;,
      -1.460486; 0.140282;-1.454980;,
      -1.883843; 0.189471;-0.950700;,
      -1.869495; 0.236770;-0.950700;,
      -1.460486; 0.140282;-0.950700;,
      -1.670133; 0.280364;-1.454980;,
      -1.693433; 0.236772;-1.454980;,
      -1.460486; 0.140282;-1.454980;,
      -1.869495; 0.236770;-0.950700;,
      -1.846195; 0.280362;-0.950700;,
      -1.460486; 0.140282;-0.950700;,
      -1.638776; 0.318572;-1.454980;,
      -1.670133; 0.280364;-1.454980;,
      -1.460486; 0.140282;-1.454980;,
      -1.846195; 0.280362;-0.950700;,
      -1.814839; 0.318571;-0.950700;,
      -1.460486; 0.140282;-0.950700;,
      -1.600568; 0.349929;-1.454980;,
      -1.638776; 0.318572;-1.454980;,
      -1.460486; 0.140282;-1.454980;,
      -1.814839; 0.318571;-0.950700;,
      -1.776630; 0.349928;-0.950700;,
      -1.460486; 0.140282;-0.950700;,
      -1.556976; 0.373229;-1.454980;,
      -1.600568; 0.349929;-1.454980;,
      -1.460486; 0.140282;-1.454980;,
      -1.776630; 0.349928;-0.950700;,
      -1.733039; 0.373228;-0.950700;,
      -1.460486; 0.140282;-0.950700;,
      -1.509676; 0.387577;-1.454980;,
      -1.556976; 0.373229;-1.454980;,
      -1.460486; 0.140282;-1.454980;,
      -1.733039; 0.373228;-0.950700;,
      -1.685739; 0.387577;-0.950700;,
      -1.460486; 0.140282;-0.950700;,
      -1.460486; 0.140282;-1.454980;,
      -1.460486; 0.392422;-1.454980;,
      -1.509676; 0.387577;-1.454980;,
      -1.685739; 0.387577;-0.950700;,
      -1.636547; 0.392422;-0.950700;,
      -1.460486; 0.140282;-0.950700;,
      -1.411296; 0.387577;-1.454980;,
      -1.587357; 0.387577;-0.950700;,
      -1.636547; 0.392422;-0.950700;,
      -1.460486; 0.392422;-1.454980;,
      -1.363996; 0.373229;-1.454980;,
      -1.540057; 0.373229;-0.950700;,
      -1.587357; 0.387577;-0.950700;,
      -1.411296; 0.387577;-1.454980;,
      -1.320405; 0.349929;-1.454980;,
      -1.496465; 0.349928;-0.950700;,
      -1.540057; 0.373229;-0.950700;,
      -1.363996; 0.373229;-1.454980;,
      -1.282196; 0.318572;-1.454980;,
      -1.458257; 0.318571;-0.950700;,
      -1.496465; 0.349928;-0.950700;,
      -1.320405; 0.349929;-1.454980;,
      -1.250839; 0.280363;-1.454980;,
      -1.426900; 0.280363;-0.950700;,
      -1.458257; 0.318571;-0.950700;,
      -1.282196; 0.318572;-1.454980;,
      -1.227539; 0.236772;-1.454980;,
      -1.403600; 0.236771;-0.950700;,
      -1.426900; 0.280363;-0.950700;,
      -1.250839; 0.280363;-1.454980;,
      -1.213191; 0.189472;-1.454980;,
      -1.389252; 0.189471;-0.950700;,
      -1.403600; 0.236771;-0.950700;,
      -1.227539; 0.236772;-1.454980;,
      -1.208346; 0.140282;-1.454980;,
      -1.384407; 0.140281;-0.950700;,
      -1.389252; 0.189471;-0.950700;,
      -1.213191; 0.189472;-1.454980;,
      -1.213191; 0.091092;-1.454980;,
      -1.389252; 0.091091;-0.950700;,
      -1.384407; 0.140281;-0.950700;,
      -1.208346; 0.140282;-1.454980;,
      -1.227539; 0.043792;-1.454980;,
      -1.403600; 0.043791;-0.950700;,
      -1.389252; 0.091091;-0.950700;,
      -1.213191; 0.091092;-1.454980;,
      -1.250839; 0.000200;-1.454980;,
      -1.426901; 0.000200;-0.950700;,
      -1.403600; 0.043791;-0.950700;,
      -1.227539; 0.043792;-1.454980;,
      -1.282196;-0.038008;-1.454980;,
      -1.458258;-0.038008;-0.950700;,
      -1.426901; 0.000200;-0.950700;,
      -1.250839; 0.000200;-1.454980;,
      -1.320405;-0.069365;-1.454980;,
      -1.496466;-0.069365;-0.950700;,
      -1.458258;-0.038008;-0.950700;,
      -1.282196;-0.038008;-1.454980;,
      -1.363996;-0.092665;-1.454980;,
      -1.540058;-0.092665;-0.950700;,
      -1.496466;-0.069365;-0.950700;,
      -1.320405;-0.069365;-1.454980;,
      -1.411296;-0.107014;-1.454980;,
      -1.587357;-0.107014;-0.950700;,
      -1.540058;-0.092665;-0.950700;,
      -1.363996;-0.092665;-1.454980;,
      -1.460486;-0.111858;-1.454980;,
      -1.636547;-0.111858;-0.950700;,
      -1.587357;-0.107014;-0.950700;,
      -1.411296;-0.107014;-1.454980;,
      -1.509676;-0.107014;-1.454980;,
      -1.685737;-0.107014;-0.950700;,
      -1.636547;-0.111858;-0.950700;,
      -1.460486;-0.111858;-1.454980;,
      -1.556976;-0.092665;-1.454980;,
      -1.733037;-0.092666;-0.950700;,
      -1.685737;-0.107014;-0.950700;,
      -1.509676;-0.107014;-1.454980;,
      -1.600568;-0.069365;-1.454980;,
      -1.776629;-0.069366;-0.950700;,
      -1.733037;-0.092666;-0.950700;,
      -1.556976;-0.092665;-1.454980;,
      -1.638776;-0.038008;-1.454980;,
      -1.814837;-0.038009;-0.950700;,
      -1.776629;-0.069366;-0.950700;,
      -1.600568;-0.069365;-1.454980;,
      -1.670133; 0.000200;-1.454980;,
      -1.846194; 0.000199;-0.950700;,
      -1.814837;-0.038009;-0.950700;,
      -1.638776;-0.038008;-1.454980;,
      -1.693433; 0.043792;-1.454980;,
      -1.869494; 0.043791;-0.950700;,
      -1.846194; 0.000199;-0.950700;,
      -1.670133; 0.000200;-1.454980;,
      -1.707782; 0.091092;-1.454980;,
      -1.883843; 0.091091;-0.950700;,
      -1.869494; 0.043791;-0.950700;,
      -1.693433; 0.043792;-1.454980;,
      -1.712626; 0.140282;-1.454980;,
      -1.888688; 0.140281;-0.950700;,
      -1.883843; 0.091091;-0.950700;,
      -1.707782; 0.091092;-1.454980;,
      -1.707781; 0.189472;-1.454980;,
      -1.883843; 0.189471;-0.950700;,
      -1.888688; 0.140281;-0.950700;,
      -1.712626; 0.140282;-1.454980;,
      -1.693433; 0.236772;-1.454980;,
      -1.869495; 0.236770;-0.950700;,
      -1.883843; 0.189471;-0.950700;,
      -1.707781; 0.189472;-1.454980;,
      -1.670133; 0.280364;-1.454980;,
      -1.846195; 0.280362;-0.950700;,
      -1.869495; 0.236770;-0.950700;,
      -1.693433; 0.236772;-1.454980;,
      -1.638776; 0.318572;-1.454980;,
      -1.814839; 0.318571;-0.950700;,
      -1.846195; 0.280362;-0.950700;,
      -1.670133; 0.280364;-1.454980;,
      -1.600568; 0.349929;-1.454980;,
      -1.776630; 0.349928;-0.950700;,
      -1.814839; 0.318571;-0.950700;,
      -1.638776; 0.318572;-1.454980;,
      -1.556976; 0.373229;-1.454980;,
      -1.733039; 0.373228;-0.950700;,
      -1.776630; 0.349928;-0.950700;,
      -1.600568; 0.349929;-1.454980;,
      -1.509676; 0.387577;-1.454980;,
      -1.685739; 0.387577;-0.950700;,
      -1.733039; 0.373228;-0.950700;,
      -1.556976; 0.373229;-1.454980;,
      -1.685739; 0.387577;-0.950700;,
      -1.509676; 0.387577;-1.454980;,
      -1.460486; 0.392422;-1.454980;,
      -1.636547; 0.392422;-0.950700;,
      -2.038359; 0.640957;-0.240186;,
      -1.946523; 0.923603;-0.565388;,
      -2.381201; 0.890047;-0.502093;,
      -2.381201; 0.890047;-0.502093;,
      -2.512151; 0.487010;-0.240186;,
      -2.038359; 0.640957;-0.240186;,
      -2.512151; 0.487010;-0.240186;,
      -2.381201; 0.890047;-0.502093;,
      -2.752584; 0.661693;-0.565388;,
      -2.169310; 0.237925;-0.119803;,
      -2.038359; 0.640957;-0.240186;,
      -2.512151; 0.487010;-0.240186;,
      -2.512151; 0.487010;-0.240186;,
      -2.752584; 0.661693;-0.565388;,
      -2.854994; 0.237925;-0.502094;,
      -2.854994; 0.237925;-0.502094;,
      -2.512151;-0.011161;-0.240186;,
      -2.512151; 0.487010;-0.240186;,
      -2.512151;-0.011161;-0.240186;,
      -2.854994; 0.237925;-0.502094;,
      -2.752584;-0.185844;-0.565388;,
      -2.169310; 0.237925;-0.119803;,
      -2.512151; 0.487010;-0.240186;,
      -2.512151;-0.011161;-0.240186;,
      -1.745533; 0.237925;-0.240189;,
      -1.448338; 0.237925;-0.565388;,
      -1.614579; 0.640959;-0.502094;,
      -1.614579; 0.640959;-0.502094;,
      -2.038359; 0.640957;-0.240186;,
      -1.745533; 0.237925;-0.240189;,
      -2.038359; 0.640957;-0.240186;,
      -1.614579; 0.640959;-0.502094;,
      -1.946523; 0.923603;-0.565388;,
      -2.169310; 0.237925;-0.119803;,
      -1.745533; 0.237925;-0.240189;,
      -2.038359; 0.640957;-0.240186;,
      -2.038359;-0.165108;-0.240186;,
      -1.946523;-0.447753;-0.565388;,
      -1.614579;-0.165109;-0.502094;,
      -1.614579;-0.165109;-0.502094;,
      -1.745533; 0.237925;-0.240189;,
      -2.038359;-0.165108;-0.240186;,
      -1.745533; 0.237925;-0.240189;,
      -1.614579;-0.165109;-0.502094;,
      -1.448338; 0.237925;-0.565388;,
      -2.169310; 0.237925;-0.119803;,
      -2.038359;-0.165108;-0.240186;,
      -1.745533; 0.237925;-0.240189;,
      -2.512151;-0.011161;-0.240186;,
      -2.752584;-0.185844;-0.565388;,
      -2.381201;-0.414197;-0.502093;,
      -2.381201;-0.414197;-0.502093;,
      -2.038359;-0.165108;-0.240186;,
      -2.512151;-0.011161;-0.240186;,
      -2.038359;-0.165108;-0.240186;,
      -2.381201;-0.414197;-0.502093;,
      -1.946523;-0.447753;-0.565388;,
      -2.169310; 0.237925;-0.119803;,
      -2.512151;-0.011161;-0.240186;,
      -2.038359;-0.165108;-0.240186;,
      -2.854994; 0.237925;-0.502094;,
      -2.752584; 0.661693;-0.565388;,
      -2.935932; 0.487012;-0.925876;,
      -2.935932; 0.487012;-0.925876;,
      -2.935932;-0.011162;-0.925876;,
      -2.854994; 0.237925;-0.502094;,
      -2.935932;-0.011162;-0.925876;,
      -2.935932; 0.487012;-0.925876;,
      -2.890281; 0.237925;-1.286363;,
      -2.752584;-0.185844;-0.565388;,
      -2.854994; 0.237925;-0.502094;,
      -2.935932;-0.011162;-0.925876;,
      -2.381201; 0.890047;-0.502093;,
      -1.946523; 0.923603;-0.565388;,
      -2.169310; 1.043998;-0.925876;,
      -2.169310; 1.043998;-0.925876;,
      -2.643108; 0.890051;-0.925876;,
      -2.381201; 0.890047;-0.502093;,
      -2.643108; 0.890051;-0.925876;,
      -2.169310; 1.043998;-0.925876;,
      -2.392096; 0.923603;-1.286363;,
      -2.752584; 0.661693;-0.565388;,
      -2.381201; 0.890047;-0.502093;,
      -2.643108; 0.890051;-0.925876;,
      -1.614579; 0.640959;-0.502094;,
      -1.448338; 0.237925;-0.565388;,
      -1.402688; 0.487012;-0.925876;,
      -1.402688; 0.487012;-0.925876;,
      -1.695512; 0.890051;-0.925876;,
      -1.614579; 0.640959;-0.502094;,
      -1.695512; 0.890051;-0.925876;,
      -1.402688; 0.487012;-0.925876;,
      -1.586035; 0.661693;-1.286363;,
      -1.946523; 0.923603;-0.565388;,
      -1.614579; 0.640959;-0.502094;,
      -1.695512; 0.890051;-0.925876;,
      -1.614579;-0.165109;-0.502094;,
      -1.946523;-0.447753;-0.565388;,
      -1.695512;-0.414201;-0.925876;,
      -1.695512;-0.414201;-0.925876;,
      -1.402688;-0.011162;-0.925876;,
      -1.614579;-0.165109;-0.502094;,
      -1.402688;-0.011162;-0.925876;,
      -1.695512;-0.414201;-0.925876;,
      -1.586035;-0.185844;-1.286363;,
      -1.448338; 0.237925;-0.565388;,
      -1.614579;-0.165109;-0.502094;,
      -1.402688;-0.011162;-0.925876;,
      -2.381201;-0.414197;-0.502093;,
      -2.752584;-0.185844;-0.565388;,
      -2.643108;-0.414201;-0.925876;,
      -2.643108;-0.414201;-0.925876;,
      -2.169310;-0.568148;-0.925876;,
      -2.381201;-0.414197;-0.502093;,
      -2.169310;-0.568148;-0.925876;,
      -2.643108;-0.414201;-0.925876;,
      -2.392096;-0.447753;-1.286363;,
      -1.946523;-0.447753;-0.565388;,
      -2.381201;-0.414197;-0.502093;,
      -2.169310;-0.568148;-0.925876;,
      -2.643108; 0.890051;-0.925876;,
      -2.392096; 0.923603;-1.286363;,
      -2.724041; 0.640959;-1.349657;,
      -2.724041; 0.640959;-1.349657;,
      -2.935932; 0.487012;-0.925876;,
      -2.643108; 0.890051;-0.925876;,
      -2.935932; 0.487012;-0.925876;,
      -2.724041; 0.640959;-1.349657;,
      -2.890281; 0.237925;-1.286363;,
      -2.752584; 0.661693;-0.565388;,
      -2.643108; 0.890051;-0.925876;,
      -2.935932; 0.487012;-0.925876;,
      -1.695512; 0.890051;-0.925876;,
      -1.586035; 0.661693;-1.286363;,
      -1.957418; 0.890047;-1.349658;,
      -1.957418; 0.890047;-1.349658;,
      -2.169310; 1.043998;-0.925876;,
      -1.695512; 0.890051;-0.925876;,
      -2.169310; 1.043998;-0.925876;,
      -1.957418; 0.890047;-1.349658;,
      -2.392096; 0.923603;-1.286363;,
      -1.946523; 0.923603;-0.565388;,
      -1.695512; 0.890051;-0.925876;,
      -2.169310; 1.043998;-0.925876;,
      -1.402688;-0.011162;-0.925876;,
      -1.586035;-0.185844;-1.286363;,
      -1.483626; 0.237925;-1.349657;,
      -1.483626; 0.237925;-1.349657;,
      -1.402688; 0.487012;-0.925876;,
      -1.402688;-0.011162;-0.925876;,
      -1.402688; 0.487012;-0.925876;,
      -1.483626; 0.237925;-1.349657;,
      -1.586035; 0.661693;-1.286363;,
      -1.448338; 0.237925;-0.565388;,
      -1.402688;-0.011162;-0.925876;,
      -1.402688; 0.487012;-0.925876;,
      -2.169310;-0.568148;-0.925876;,
      -2.392096;-0.447753;-1.286363;,
      -1.957418;-0.414197;-1.349658;,
      -1.957418;-0.414197;-1.349658;,
      -1.695512;-0.414201;-0.925876;,
      -2.169310;-0.568148;-0.925876;,
      -1.695512;-0.414201;-0.925876;,
      -1.957418;-0.414197;-1.349658;,
      -1.586035;-0.185844;-1.286363;,
      -1.946523;-0.447753;-0.565388;,
      -2.169310;-0.568148;-0.925876;,
      -1.695512;-0.414201;-0.925876;,
      -2.935932;-0.011162;-0.925876;,
      -2.890281; 0.237925;-1.286363;,
      -2.724041;-0.165109;-1.349657;,
      -2.724041;-0.165109;-1.349657;,
      -2.643108;-0.414201;-0.925876;,
      -2.935932;-0.011162;-0.925876;,
      -2.643108;-0.414201;-0.925876;,
      -2.724041;-0.165109;-1.349657;,
      -2.392096;-0.447753;-1.286363;,
      -2.752584;-0.185844;-0.565388;,
      -2.935932;-0.011162;-0.925876;,
      -2.643108;-0.414201;-0.925876;,
      -2.724041; 0.640959;-1.349657;,
      -2.392096; 0.923603;-1.286363;,
      -2.300261; 0.640957;-1.611565;,
      -2.300261; 0.640957;-1.611565;,
      -2.593086; 0.237925;-1.611563;,
      -2.724041; 0.640959;-1.349657;,
      -2.593086; 0.237925;-1.611563;,
      -2.300261; 0.640957;-1.611565;,
      -2.169310; 0.237925;-1.731948;,
      -2.890281; 0.237925;-1.286363;,
      -2.724041; 0.640959;-1.349657;,
      -2.593086; 0.237925;-1.611563;,
      -1.957418; 0.890047;-1.349658;,
      -1.586035; 0.661693;-1.286363;,
      -1.826469; 0.487010;-1.611565;,
      -1.826469; 0.487010;-1.611565;,
      -2.300261; 0.640957;-1.611565;,
      -1.957418; 0.890047;-1.349658;,
      -2.300261; 0.640957;-1.611565;,
      -1.826469; 0.487010;-1.611565;,
      -2.169310; 0.237925;-1.731948;,
      -2.392096; 0.923603;-1.286363;,
      -1.957418; 0.890047;-1.349658;,
      -2.300261; 0.640957;-1.611565;,
      -1.483626; 0.237925;-1.349657;,
      -1.586035;-0.185844;-1.286363;,
      -1.826469;-0.011161;-1.611565;,
      -1.826469;-0.011161;-1.611565;,
      -1.826469; 0.487010;-1.611565;,
      -1.483626; 0.237925;-1.349657;,
      -1.826469; 0.487010;-1.611565;,
      -1.826469;-0.011161;-1.611565;,
      -2.169310; 0.237925;-1.731948;,
      -1.586035; 0.661693;-1.286363;,
      -1.483626; 0.237925;-1.349657;,
      -1.826469; 0.487010;-1.611565;,
      -1.957418;-0.414197;-1.349658;,
      -2.392096;-0.447753;-1.286363;,
      -2.300261;-0.165108;-1.611565;,
      -2.300261;-0.165108;-1.611565;,
      -1.826469;-0.011161;-1.611565;,
      -1.957418;-0.414197;-1.349658;,
      -1.826469;-0.011161;-1.611565;,
      -2.300261;-0.165108;-1.611565;,
      -2.169310; 0.237925;-1.731948;,
      -1.586035;-0.185844;-1.286363;,
      -1.957418;-0.414197;-1.349658;,
      -1.826469;-0.011161;-1.611565;,
      -2.724041;-0.165109;-1.349657;,
      -2.890281; 0.237925;-1.286363;,
      -2.593086; 0.237925;-1.611563;,
      -2.593086; 0.237925;-1.611563;,
      -2.300261;-0.165108;-1.611565;,
      -2.724041;-0.165109;-1.349657;,
      -2.300261;-0.165108;-1.611565;,
      -2.593086; 0.237925;-1.611563;,
      -2.169310; 0.237925;-1.731948;,
      -2.392096;-0.447753;-1.286363;,
      -2.724041;-0.165109;-1.349657;,
      -2.300261;-0.165108;-1.611565;,
      -2.600893; 0.156902;-1.441845;,
      -2.762939; 0.156902;-1.441845;,
      -2.762939; 0.318948;-1.441845;,
      -2.600893; 0.318948;-1.441845;,
      -2.762939; 0.156902;-1.603892;,
      -2.762939; 0.318948;-1.603892;,
      -2.762939; 0.318948;-1.441845;,
      -2.762939; 0.156902;-1.441845;,
      -2.762939; 0.318948;-1.603892;,
      -2.600893; 0.318948;-1.603892;,
      -2.600893; 0.318948;-1.441845;,
      -2.762939; 0.318948;-1.441845;,
      -2.600893; 0.318948;-1.603892;,
      -2.600893; 0.156902;-1.603892;,
      -2.600893; 0.156902;-1.441845;,
      -2.600893; 0.318948;-1.441845;,
      -2.600893; 0.156902;-1.603892;,
      -2.762939; 0.156902;-1.603892;,
      -2.762939; 0.156902;-1.441845;,
      -2.600893; 0.156902;-1.441845;,
      -2.656166; 0.156902;-1.678238;,
      -2.818213; 0.156902;-1.678238;,
      -2.762939; 0.156902;-1.603892;,
      -2.600893; 0.156902;-1.603892;,
      -2.656166; 0.318948;-1.678238;,
      -2.656166; 0.156902;-1.678238;,
      -2.600893; 0.156902;-1.603892;,
      -2.600893; 0.318948;-1.603892;,
      -2.818213; 0.318948;-1.678238;,
      -2.656166; 0.318948;-1.678238;,
      -2.600893; 0.318948;-1.603892;,
      -2.762939; 0.318948;-1.603892;,
      -2.818213; 0.156902;-1.678238;,
      -2.818213; 0.318948;-1.678238;,
      -2.762939; 0.318948;-1.603892;,
      -2.762939; 0.156902;-1.603892;,
      -2.950280; 0.156902;-1.780247;,
      -2.950280; 0.318948;-1.780247;,
      -2.818213; 0.318948;-1.678238;,
      -2.818213; 0.156902;-1.678238;,
      -2.950280; 0.318948;-1.780247;,
      -2.788234; 0.318948;-1.780247;,
      -2.656166; 0.318948;-1.678238;,
      -2.818213; 0.318948;-1.678238;,
      -2.788234; 0.318948;-1.780247;,
      -2.788234; 0.156902;-1.780247;,
      -2.656166; 0.156902;-1.678238;,
      -2.656166; 0.318948;-1.678238;,
      -2.788234; 0.156902;-1.780247;,
      -2.950280; 0.156902;-1.780247;,
      -2.818213; 0.156902;-1.678238;,
      -2.656166; 0.156902;-1.678238;,
      -3.156837; 0.156902;-1.917263;,
      -3.318883; 0.156902;-1.917263;,
      -2.950280; 0.156902;-1.780247;,
      -2.788234; 0.156902;-1.780247;,
      -3.156837; 0.318948;-1.917263;,
      -3.156837; 0.156902;-1.917263;,
      -2.788234; 0.156902;-1.780247;,
      -2.788234; 0.318948;-1.780247;,
      -3.318883; 0.318948;-1.917263;,
      -3.156837; 0.318948;-1.917263;,
      -2.788234; 0.318948;-1.780247;,
      -2.950280; 0.318948;-1.780247;,
      -3.318883; 0.156902;-1.917263;,
      -3.318883; 0.318948;-1.917263;,
      -2.950280; 0.318948;-1.780247;,
      -2.950280; 0.156902;-1.780247;,
      -3.156837; 0.156902;-1.917263;,
      -3.156837; 0.318948;-1.917263;,
      -3.318883; 0.318948;-1.917263;,
      -3.318883; 0.156902;-1.917263;;
      194;
      3;0;1;2;,
      3;3;4;5;,
      3;6;7;8;,
      3;9;10;11;,
      3;12;13;14;,
      3;15;16;17;,
      3;18;19;20;,
      3;21;22;23;,
      3;24;25;26;,
      3;27;28;29;,
      3;30;31;32;,
      3;33;34;35;,
      3;36;37;38;,
      3;39;40;41;,
      3;42;43;44;,
      3;45;46;47;,
      3;48;49;50;,
      3;51;52;53;,
      3;54;55;56;,
      3;57;58;59;,
      3;60;61;62;,
      3;63;64;65;,
      3;66;67;68;,
      3;69;70;71;,
      3;72;73;74;,
      3;75;76;77;,
      3;78;79;80;,
      3;81;82;83;,
      3;84;85;86;,
      3;87;88;89;,
      3;90;91;92;,
      3;93;94;95;,
      3;96;97;98;,
      3;99;100;101;,
      3;102;103;104;,
      3;105;106;107;,
      3;108;109;110;,
      3;111;112;113;,
      3;114;115;116;,
      3;117;118;119;,
      3;120;121;122;,
      3;123;124;125;,
      3;126;127;128;,
      3;129;130;131;,
      3;132;133;134;,
      3;135;136;137;,
      3;138;139;140;,
      3;141;142;143;,
      3;144;145;146;,
      3;147;148;149;,
      3;150;151;152;,
      3;153;154;155;,
      3;156;157;158;,
      3;159;160;161;,
      3;162;163;164;,
      3;165;166;167;,
      3;168;169;170;,
      3;171;172;173;,
      3;174;175;176;,
      3;177;178;179;,
      3;180;181;182;,
      3;183;184;185;,
      3;186;187;188;,
      3;189;190;191;,
      4;192;193;194;195;,
      4;196;197;198;199;,
      4;200;201;202;203;,
      4;204;205;206;207;,
      4;208;209;210;211;,
      4;212;213;214;215;,
      4;216;217;218;219;,
      4;220;221;222;223;,
      4;224;225;226;227;,
      4;228;229;230;231;,
      4;232;233;234;235;,
      4;236;237;238;239;,
      4;240;241;242;243;,
      4;244;245;246;247;,
      4;248;249;250;251;,
      4;252;253;254;255;,
      4;256;257;258;259;,
      4;260;261;262;263;,
      4;264;265;266;267;,
      4;268;269;270;271;,
      4;272;273;274;275;,
      4;276;277;278;279;,
      4;280;281;282;283;,
      4;284;285;286;287;,
      4;288;289;290;291;,
      4;292;293;294;295;,
      4;296;297;298;299;,
      4;300;301;302;303;,
      4;304;305;306;307;,
      4;308;309;310;311;,
      4;312;313;314;315;,
      4;316;317;318;319;,
      3;320;321;322;,
      3;323;324;325;,
      3;326;327;328;,
      3;329;330;331;,
      3;332;333;334;,
      3;335;336;337;,
      3;338;339;340;,
      3;341;342;343;,
      3;344;345;346;,
      3;347;348;349;,
      3;350;351;352;,
      3;353;354;355;,
      3;356;357;358;,
      3;359;360;361;,
      3;362;363;364;,
      3;365;366;367;,
      3;368;369;370;,
      3;371;372;373;,
      3;374;375;376;,
      3;377;378;379;,
      3;380;381;382;,
      3;383;384;385;,
      3;386;387;388;,
      3;389;390;391;,
      3;392;393;394;,
      3;395;396;397;,
      3;398;399;400;,
      3;401;402;403;,
      3;404;405;406;,
      3;407;408;409;,
      3;410;411;412;,
      3;413;414;415;,
      3;416;417;418;,
      3;419;420;421;,
      3;422;423;424;,
      3;425;426;427;,
      3;428;429;430;,
      3;431;432;433;,
      3;434;435;436;,
      3;437;438;439;,
      3;440;441;442;,
      3;443;444;445;,
      3;446;447;448;,
      3;449;450;451;,
      3;452;453;454;,
      3;455;456;457;,
      3;458;459;460;,
      3;461;462;463;,
      3;464;465;466;,
      3;467;468;469;,
      3;470;471;472;,
      3;473;474;475;,
      3;476;477;478;,
      3;479;480;481;,
      3;482;483;484;,
      3;485;486;487;,
      3;488;489;490;,
      3;491;492;493;,
      3;494;495;496;,
      3;497;498;499;,
      3;500;501;502;,
      3;503;504;505;,
      3;506;507;508;,
      3;509;510;511;,
      3;512;513;514;,
      3;515;516;517;,
      3;518;519;520;,
      3;521;522;523;,
      3;524;525;526;,
      3;527;528;529;,
      3;530;531;532;,
      3;533;534;535;,
      3;536;537;538;,
      3;539;540;541;,
      3;542;543;544;,
      3;545;546;547;,
      3;548;549;550;,
      3;551;552;553;,
      3;554;555;556;,
      3;557;558;559;,
      4;560;561;562;563;,
      4;564;565;566;567;,
      4;568;569;570;571;,
      4;572;573;574;575;,
      4;576;577;578;579;,
      4;580;581;582;583;,
      4;584;585;586;587;,
      4;588;589;590;591;,
      4;592;593;594;595;,
      4;596;597;598;599;,
      4;600;601;602;603;,
      4;604;605;606;607;,
      4;608;609;610;611;,
      4;612;613;614;615;,
      4;616;617;618;619;,
      4;620;621;622;623;,
      4;624;625;626;627;,
      4;628;629;630;631;;
      MeshNormals { //Cylinder_001 Normals
        632;
        -0.000000;-0.000000;-1.000000;,
        -0.000000;-0.000000;-1.000000;,
        -0.000000;-0.000000;-1.000000;,
         0.000000; 0.000000; 1.000000;,
         0.000000; 0.000000; 1.000000;,
         0.000000; 0.000000; 1.000000;,
        -0.000000; 0.000000;-1.000000;,
        -0.000000; 0.000000;-1.000000;,
        -0.000000; 0.000000;-1.000000;,
         0.000000; 0.000000; 1.000000;,
         0.000000; 0.000000; 1.000000;,
         0.000000; 0.000000; 1.000000;,
        -0.000000; 0.000000;-1.000000;,
        -0.000000; 0.000000;-1.000000;,
        -0.000000; 0.000000;-1.000000;,
         0.000000; 0.000000; 1.000000;,
         0.000000; 0.000000; 1.000000;,
         0.000000; 0.000000; 1.000000;,
        -0.000000; 0.000000;-1.000000;,
        -0.000000; 0.000000;-1.000000;,
        -0.000000; 0.000000;-1.000000;,
         0.000000; 0.000000; 1.000000;,
         0.000000; 0.000000; 1.000000;,
         0.000000; 0.000000; 1.000000;,
        -0.000000; 0.000000;-1.000000;,
        -0.000000; 0.000000;-1.000000;,
        -0.000000; 0.000000;-1.000000;,
         0.000000; 0.000000; 1.000000;,
         0.000000; 0.000000; 1.000000;,
         0.000000; 0.000000; 1.000000;,
        -0.000000; 0.000000;-1.000000;,
        -0.000000; 0.000000;-1.000000;,
        -0.000000; 0.000000;-1.000000;,
         0.000000; 0.000000; 1.000000;,
         0.000000; 0.000000; 1.000000;,
         0.000000; 0.000000; 1.000000;,
        -0.000000; 0.000000;-1.000000;,
        -0.000000; 0.000000;-1.000000;,
        -0.000000; 0.000000;-1.000000;,
         0.000000; 0.000000; 1.000000;,
         0.000000; 0.000000; 1.000000;,
         0.000000; 0.000000; 1.000000;,
        -0.000000; 0.000000;-1.000000;,
        -0.000000; 0.000000;-1.000000;,
        -0.000000; 0.000000;-1.000000;,
         0.000000; 0.000000; 1.000000;,
         0.000000; 0.000000; 1.000000;,
         0.000000; 0.000000; 1.000000;,
        -0.000000; 0.000000;-1.000000;,
        -0.000000; 0.000000;-1.000000;,
        -0.000000; 0.000000;-1.000000;,
         0.000000; 0.000000; 1.000000;,
         0.000000; 0.000000; 1.000000;,
         0.000000; 0.000000; 1.000000;,
         0.000000; 0.000000;-1.000000;,
         0.000000; 0.000000;-1.000000;,
         0.000000; 0.000000;-1.000000;,
         0.000000; 0.000000; 1.000000;,
         0.000000; 0.000000; 1.000000;,
         0.000000; 0.000000; 1.000000;,
         0.000000; 0.000000;-1.000000;,
         0.000000; 0.000000;-1.000000;,
         0.000000; 0.000000;-1.000000;,
         0.000000; 0.000000; 1.000000;,
         0.000000; 0.000000; 1.000000;,
         0.000000; 0.000000; 1.000000;,
         0.000000; 0.000000;-1.000000;,
         0.000000; 0.000000;-1.000000;,
         0.000000; 0.000000;-1.000000;,
         0.000000; 0.000000; 1.000000;,
         0.000000; 0.000000; 1.000000;,
         0.000000; 0.000000; 1.000000;,
         0.000000; 0.000000;-1.000000;,
         0.000000; 0.000000;-1.000000;,
         0.000000; 0.000000;-1.000000;,
         0.000000;-0.000000; 1.000000;,
         0.000000;-0.000000; 1.000000;,
         0.000000;-0.000000; 1.000000;,
         0.000000; 0.000000;-1.000000;,
         0.000000; 0.000000;-1.000000;,
         0.000000; 0.000000;-1.000000;,
         0.000000;-0.000000; 1.000000;,
         0.000000;-0.000000; 1.000000;,
         0.000000;-0.000000; 1.000000;,
         0.000000; 0.000000;-1.000000;,
         0.000000; 0.000000;-1.000000;,
         0.000000; 0.000000;-1.000000;,
         0.000000;-0.000000; 1.000000;,
         0.000000;-0.000000; 1.000000;,
         0.000000;-0.000000; 1.000000;,
         0.000000; 0.000000;-1.000000;,
         0.000000; 0.000000;-1.000000;,
         0.000000; 0.000000;-1.000000;,
         0.000000;-0.000000; 1.000000;,
         0.000000;-0.000000; 1.000000;,
         0.000000;-0.000000; 1.000000;,
         0.000000; 0.000000;-1.000000;,
         0.000000; 0.000000;-1.000000;,
         0.000000; 0.000000;-1.000000;,
         0.000000;-0.000000; 1.000000;,
         0.000000;-0.000000; 1.000000;,
         0.000000;-0.000000; 1.000000;,
         0.000000; 0.000000;-1.000000;,
         0.000000; 0.000000;-1.000000;,
         0.000000; 0.000000;-1.000000;,
         0.000000;-0.000000; 1.000000;,
         0.000000;-0.000000; 1.000000;,
         0.000000;-0.000000; 1.000000;,
         0.000000; 0.000000;-1.000000;,
         0.000000; 0.000000;-1.000000;,
         0.000000; 0.000000;-1.000000;,
         0.000000;-0.000000; 1.000000;,
         0.000000;-0.000000; 1.000000;,
         0.000000;-0.000000; 1.000000;,
         0.000000; 0.000000;-1.000000;,
         0.000000; 0.000000;-1.000000;,
         0.000000; 0.000000;-1.000000;,
         0.000000;-0.000000; 1.000000;,
         0.000000;-0.000000; 1.000000;,
         0.000000;-0.000000; 1.000000;,
         0.000000; 0.000000;-1.000000;,
         0.000000; 0.000000;-1.000000;,
         0.000000; 0.000000;-1.000000;,
         0.000000;-0.000000; 1.000000;,
         0.000000;-0.000000; 1.000000;,
         0.000000;-0.000000; 1.000000;,
         0.000000; 0.000000;-1.000000;,
         0.000000; 0.000000;-1.000000;,
         0.000000; 0.000000;-1.000000;,
         0.000000;-0.000000; 1.000000;,
         0.000000;-0.000000; 1.000000;,
         0.000000;-0.000000; 1.000000;,
         0.000000; 0.000000;-1.000000;,
         0.000000; 0.000000;-1.000000;,
         0.000000; 0.000000;-1.000000;,
         0.000000;-0.000000; 1.000000;,
         0.000000;-0.000000; 1.000000;,
         0.000000;-0.000000; 1.000000;,
         0.000000; 0.000000;-1.000000;,
         0.000000; 0.000000;-1.000000;,
         0.000000; 0.000000;-1.000000;,
         0.000000;-0.000000; 1.000000;,
         0.000000;-0.000000; 1.000000;,
         0.000000;-0.000000; 1.000000;,
         0.000000;-0.000000;-1.000000;,
         0.000000;-0.000000;-1.000000;,
         0.000000;-0.000000;-1.000000;,
        -0.000000; 0.000000; 1.000000;,
        -0.000000; 0.000000; 1.000000;,
        -0.000000; 0.000000; 1.000000;,
         0.000000;-0.000000;-1.000000;,
         0.000000;-0.000000;-1.000000;,
         0.000000;-0.000000;-1.000000;,
        -0.000000; 0.000000; 1.000000;,
        -0.000000; 0.000000; 1.000000;,
        -0.000000; 0.000000; 1.000000;,
         0.000000;-0.000000;-1.000000;,
         0.000000;-0.000000;-1.000000;,
         0.000000;-0.000000;-1.000000;,
        -0.000000; 0.000000; 1.000000;,
        -0.000000; 0.000000; 1.000000;,
        -0.000000; 0.000000; 1.000000;,
         0.000000;-0.000000;-1.000000;,
         0.000000;-0.000000;-1.000000;,
         0.000000;-0.000000;-1.000000;,
        -0.000000; 0.000000; 1.000000;,
        -0.000000; 0.000000; 1.000000;,
        -0.000000; 0.000000; 1.000000;,
         0.000000;-0.000000;-1.000000;,
         0.000000;-0.000000;-1.000000;,
         0.000000;-0.000000;-1.000000;,
        -0.000000; 0.000000; 1.000000;,
        -0.000000; 0.000000; 1.000000;,
        -0.000000; 0.000000; 1.000000;,
         0.000000;-0.000000;-1.000000;,
         0.000000;-0.000000;-1.000000;,
         0.000000;-0.000000;-1.000000;,
        -0.000000; 0.000000; 1.000000;,
        -0.000000; 0.000000; 1.000000;,
        -0.000000; 0.000000; 1.000000;,
         0.000000;-0.000000;-1.000000;,
         0.000000;-0.000000;-1.000000;,
         0.000000;-0.000000;-1.000000;,
        -0.000000; 0.000000; 1.000000;,
        -0.000000; 0.000000; 1.000000;,
        -0.000000; 0.000000; 1.000000;,
        -0.000000; 0.000000;-1.000000;,
        -0.000000; 0.000000;-1.000000;,
        -0.000000; 0.000000;-1.000000;,
        -0.000000; 0.000000; 1.000000;,
        -0.000000; 0.000000; 1.000000;,
        -0.000000; 0.000000; 1.000000;,
         0.097960; 0.994602; 0.034201;,
         0.097960; 0.994602; 0.034201;,
         0.097960; 0.994602; 0.034201;,
         0.097960; 0.994602; 0.034201;,
         0.288806; 0.952063; 0.100832;,
         0.288806; 0.952063; 0.100832;,
         0.288806; 0.952063; 0.100832;,
         0.288806; 0.952063; 0.100832;,
         0.465140; 0.870214; 0.162396;,
         0.465140; 0.870214; 0.162396;,
         0.465140; 0.870214; 0.162396;,
         0.465140; 0.870214; 0.162396;,
         0.619383; 0.754719; 0.216248;,
         0.619383; 0.754719; 0.216248;,
         0.619383; 0.754719; 0.216248;,
         0.619383; 0.754719; 0.216248;,
         0.746310; 0.612478; 0.260562;,
         0.746310; 0.612478; 0.260562;,
         0.746310; 0.612478; 0.260562;,
         0.746310; 0.612478; 0.260562;,
         0.842871; 0.450522; 0.294275;,
         0.842871; 0.450522; 0.294275;,
         0.842871; 0.450522; 0.294275;,
         0.842871; 0.450522; 0.294275;,
         0.907624; 0.275326; 0.316882;,
         0.907624; 0.275326; 0.316882;,
         0.907624; 0.275326; 0.316882;,
         0.907624; 0.275326; 0.316882;,
         0.940058; 0.092586; 0.328206;,
         0.940058; 0.092586; 0.328206;,
         0.940058; 0.092586; 0.328206;,
         0.940058; 0.092586; 0.328206;,
         0.940058;-0.092590; 0.328206;,
         0.940058;-0.092590; 0.328206;,
         0.940058;-0.092590; 0.328206;,
         0.940058;-0.092590; 0.328206;,
         0.907624;-0.275326; 0.316882;,
         0.907624;-0.275326; 0.316882;,
         0.907624;-0.275326; 0.316882;,
         0.907624;-0.275326; 0.316882;,
         0.842870;-0.450524; 0.294275;,
         0.842870;-0.450524; 0.294275;,
         0.842870;-0.450524; 0.294275;,
         0.842870;-0.450524; 0.294275;,
         0.746308;-0.612480; 0.260562;,
         0.746308;-0.612480; 0.260562;,
         0.746308;-0.612480; 0.260562;,
         0.746308;-0.612480; 0.260562;,
         0.619383;-0.754719; 0.216248;,
         0.619383;-0.754719; 0.216248;,
         0.619383;-0.754719; 0.216248;,
         0.619383;-0.754719; 0.216248;,
         0.465139;-0.870215; 0.162396;,
         0.465139;-0.870215; 0.162396;,
         0.465139;-0.870215; 0.162396;,
         0.465139;-0.870215; 0.162396;,
         0.288805;-0.952063; 0.100832;,
         0.288805;-0.952063; 0.100832;,
         0.288805;-0.952063; 0.100832;,
         0.288805;-0.952063; 0.100832;,
         0.097960;-0.994602; 0.034201;,
         0.097960;-0.994602; 0.034201;,
         0.097960;-0.994602; 0.034201;,
         0.097960;-0.994602; 0.034201;,
        -0.097959;-0.994602;-0.034201;,
        -0.097959;-0.994602;-0.034201;,
        -0.097959;-0.994602;-0.034201;,
        -0.097959;-0.994602;-0.034201;,
        -0.288805;-0.952063;-0.100832;,
        -0.288805;-0.952063;-0.100832;,
        -0.288805;-0.952063;-0.100832;,
        -0.288805;-0.952063;-0.100832;,
        -0.465138;-0.870215;-0.162395;,
        -0.465138;-0.870215;-0.162395;,
        -0.465138;-0.870215;-0.162395;,
        -0.465138;-0.870215;-0.162395;,
        -0.619383;-0.754720;-0.216247;,
        -0.619383;-0.754720;-0.216247;,
        -0.619383;-0.754720;-0.216247;,
        -0.619383;-0.754720;-0.216247;,
        -0.746308;-0.612480;-0.260561;,
        -0.746308;-0.612480;-0.260561;,
        -0.746308;-0.612480;-0.260561;,
        -0.746308;-0.612480;-0.260561;,
        -0.842870;-0.450526;-0.294274;,
        -0.842870;-0.450526;-0.294274;,
        -0.842870;-0.450526;-0.294274;,
        -0.842870;-0.450526;-0.294274;,
        -0.907624;-0.275325;-0.316882;,
        -0.907624;-0.275325;-0.316882;,
        -0.907624;-0.275325;-0.316882;,
        -0.907624;-0.275325;-0.316882;,
        -0.940058;-0.092590;-0.328206;,
        -0.940058;-0.092590;-0.328206;,
        -0.940058;-0.092590;-0.328206;,
        -0.940058;-0.092590;-0.328206;,
        -0.940058; 0.092586;-0.328206;,
        -0.940058; 0.092586;-0.328206;,
        -0.940058; 0.092586;-0.328206;,
        -0.940058; 0.092586;-0.328206;,
        -0.907625; 0.275324;-0.316882;,
        -0.907625; 0.275324;-0.316882;,
        -0.907625; 0.275324;-0.316882;,
        -0.907625; 0.275324;-0.316882;,
        -0.842872; 0.450521;-0.294275;,
        -0.842872; 0.450521;-0.294275;,
        -0.842872; 0.450521;-0.294275;,
        -0.842872; 0.450521;-0.294275;,
        -0.746310; 0.612478;-0.260562;,
        -0.746310; 0.612478;-0.260562;,
        -0.746310; 0.612478;-0.260562;,
        -0.746310; 0.612478;-0.260562;,
        -0.619385; 0.754718;-0.216248;,
        -0.619385; 0.754718;-0.216248;,
        -0.619385; 0.754718;-0.216248;,
        -0.619385; 0.754718;-0.216248;,
        -0.465140; 0.870214;-0.162396;,
        -0.465140; 0.870214;-0.162396;,
        -0.465140; 0.870214;-0.162396;,
        -0.465140; 0.870214;-0.162396;,
        -0.288808; 0.952062;-0.100833;,
        -0.288808; 0.952062;-0.100833;,
        -0.288808; 0.952062;-0.100833;,
        -0.288808; 0.952062;-0.100833;,
        -0.097961; 0.994602;-0.034201;,
        -0.097961; 0.994602;-0.034201;,
        -0.097961; 0.994602;-0.034201;,
        -0.097961; 0.994602;-0.034201;,
        -0.038547;-0.748789;-0.661687;,
        -0.038547;-0.748789;-0.661687;,
        -0.038547;-0.748789;-0.661687;,
         0.187594;-0.577345;-0.794658;,
         0.187594;-0.577345;-0.794658;,
         0.187594;-0.577345;-0.794658;,
         0.471318;-0.583121;-0.661687;,
         0.471318;-0.583121;-0.661687;,
         0.471318;-0.583121;-0.661687;,
         0.102381;-0.315090;-0.943523;,
         0.102381;-0.315090;-0.943523;,
         0.102381;-0.315090;-0.943523;,
         0.700228;-0.268049;-0.661687;,
         0.700228;-0.268049;-0.661687;,
         0.700228;-0.268049;-0.661687;,
         0.607061; 0.000000;-0.794656;,
         0.607061; 0.000000;-0.794656;,
         0.607061; 0.000000;-0.794656;,
         0.700228; 0.268049;-0.661687;,
         0.700228; 0.268049;-0.661687;,
         0.700228; 0.268049;-0.661687;,
         0.331304; 0.000000;-0.943524;,
         0.331304; 0.000000;-0.943524;,
         0.331304; 0.000000;-0.943524;,
        -0.724044;-0.194734;-0.661694;,
        -0.724044;-0.194734;-0.661694;,
        -0.724044;-0.194734;-0.661694;,
        -0.491119;-0.356821;-0.794658;,
        -0.491119;-0.356821;-0.794658;,
        -0.491119;-0.356821;-0.794658;,
        -0.408938;-0.628443;-0.661686;,
        -0.408938;-0.628443;-0.661686;,
        -0.408938;-0.628443;-0.661686;,
        -0.268034;-0.194737;-0.943523;,
        -0.268034;-0.194737;-0.943523;,
        -0.268034;-0.194737;-0.943523;,
        -0.408938; 0.628443;-0.661686;,
        -0.408938; 0.628443;-0.661686;,
        -0.408938; 0.628443;-0.661686;,
        -0.491119; 0.356821;-0.794658;,
        -0.491119; 0.356821;-0.794658;,
        -0.491119; 0.356821;-0.794658;,
        -0.724044; 0.194734;-0.661694;,
        -0.724044; 0.194734;-0.661694;,
        -0.724044; 0.194734;-0.661694;,
        -0.268034; 0.194737;-0.943523;,
        -0.268034; 0.194737;-0.943523;,
        -0.268034; 0.194737;-0.943523;,
         0.471318; 0.583121;-0.661687;,
         0.471318; 0.583121;-0.661687;,
         0.471318; 0.583121;-0.661687;,
         0.187594; 0.577345;-0.794658;,
         0.187594; 0.577345;-0.794658;,
         0.187594; 0.577345;-0.794658;,
        -0.038547; 0.748789;-0.661687;,
        -0.038547; 0.748789;-0.661687;,
        -0.038547; 0.748789;-0.661687;,
         0.102381; 0.315090;-0.943523;,
         0.102381; 0.315090;-0.943523;,
         0.102381; 0.315090;-0.943523;,
         0.904981;-0.268049;-0.330393;,
         0.904981;-0.268049;-0.330393;,
         0.904981;-0.268049;-0.330393;,
         0.982246; 0.000000;-0.187599;,
         0.982246; 0.000000;-0.187599;,
         0.982246; 0.000000;-0.187599;,
         0.992077;-0.000000; 0.125631;,
         0.992077;-0.000000; 0.125631;,
         0.992077;-0.000000; 0.125631;,
         0.904981; 0.268049;-0.330393;,
         0.904981; 0.268049;-0.330393;,
         0.904981; 0.268049;-0.330393;,
         0.024726;-0.943519;-0.330396;,
         0.024726;-0.943519;-0.330396;,
         0.024726;-0.943519;-0.330396;,
         0.303531;-0.934171;-0.187597;,
         0.303531;-0.934171;-0.187597;,
         0.303531;-0.934171;-0.187597;,
         0.306569;-0.943519; 0.125651;,
         0.306569;-0.943519; 0.125651;,
         0.306569;-0.943519; 0.125651;,
         0.534590;-0.777851;-0.330395;,
         0.534590;-0.777851;-0.330395;,
         0.534590;-0.777851;-0.330395;,
        -0.889698;-0.315092;-0.330386;,
        -0.889698;-0.315092;-0.330386;,
        -0.889698;-0.315092;-0.330386;,
        -0.794655;-0.577348;-0.187594;,
        -0.794655;-0.577348;-0.187594;,
        -0.794655;-0.577348;-0.187594;,
        -0.802607;-0.583125; 0.125648;,
        -0.802607;-0.583125; 0.125648;,
        -0.802607;-0.583125; 0.125648;,
        -0.574584;-0.748794;-0.330396;,
        -0.574584;-0.748794;-0.330396;,
        -0.574584;-0.748794;-0.330396;,
        -0.574584; 0.748794;-0.330397;,
        -0.574584; 0.748794;-0.330397;,
        -0.574584; 0.748794;-0.330397;,
        -0.794656; 0.577348;-0.187595;,
        -0.794656; 0.577348;-0.187595;,
        -0.794656; 0.577348;-0.187595;,
        -0.802607; 0.583125; 0.125648;,
        -0.802607; 0.583125; 0.125648;,
        -0.802607; 0.583125; 0.125648;,
        -0.889698; 0.315092;-0.330386;,
        -0.889698; 0.315092;-0.330386;,
        -0.889698; 0.315092;-0.330386;,
         0.534590; 0.777851;-0.330395;,
         0.534590; 0.777851;-0.330395;,
         0.534590; 0.777851;-0.330395;,
         0.303531; 0.934171;-0.187597;,
         0.303531; 0.934171;-0.187597;,
         0.303531; 0.934171;-0.187597;,
         0.306568; 0.943519; 0.125651;,
         0.306568; 0.943519; 0.125651;,
         0.306568; 0.943519; 0.125651;,
         0.024726; 0.943519;-0.330396;,
         0.024726; 0.943519;-0.330396;,
         0.024726; 0.943519;-0.330396;,
         0.574584;-0.748793; 0.330397;,
         0.574584;-0.748793; 0.330397;,
         0.574584;-0.748793; 0.330397;,
         0.794655;-0.577348; 0.187595;,
         0.794655;-0.577348; 0.187595;,
         0.794655;-0.577348; 0.187595;,
         0.889698;-0.315092; 0.330386;,
         0.889698;-0.315092; 0.330386;,
         0.889698;-0.315092; 0.330386;,
         0.802607;-0.583125;-0.125648;,
         0.802607;-0.583125;-0.125648;,
         0.802607;-0.583125;-0.125648;,
        -0.534590;-0.777851; 0.330395;,
        -0.534590;-0.777851; 0.330395;,
        -0.534590;-0.777851; 0.330395;,
        -0.303531;-0.934171; 0.187597;,
        -0.303531;-0.934171; 0.187597;,
        -0.303531;-0.934171; 0.187597;,
        -0.024726;-0.943518; 0.330396;,
        -0.024726;-0.943518; 0.330396;,
        -0.024726;-0.943518; 0.330396;,
        -0.306569;-0.943519;-0.125651;,
        -0.306569;-0.943519;-0.125651;,
        -0.306569;-0.943519;-0.125651;,
        -0.904981; 0.268048; 0.330393;,
        -0.904981; 0.268048; 0.330393;,
        -0.904981; 0.268048; 0.330393;,
        -0.982246; 0.000000; 0.187599;,
        -0.982246; 0.000000; 0.187599;,
        -0.982246; 0.000000; 0.187599;,
        -0.904981;-0.268048; 0.330393;,
        -0.904981;-0.268048; 0.330393;,
        -0.904981;-0.268048; 0.330393;,
        -0.992077; 0.000000;-0.125631;,
        -0.992077; 0.000000;-0.125631;,
        -0.992077; 0.000000;-0.125631;,
        -0.024726; 0.943519; 0.330396;,
        -0.024726; 0.943519; 0.330396;,
        -0.024726; 0.943519; 0.330396;,
        -0.303531; 0.934171; 0.187597;,
        -0.303531; 0.934171; 0.187597;,
        -0.303531; 0.934171; 0.187597;,
        -0.534590; 0.777851; 0.330395;,
        -0.534590; 0.777851; 0.330395;,
        -0.534590; 0.777851; 0.330395;,
        -0.306568; 0.943519;-0.125651;,
        -0.306568; 0.943519;-0.125651;,
        -0.306568; 0.943519;-0.125651;,
         0.889698; 0.315092; 0.330386;,
         0.889698; 0.315092; 0.330386;,
         0.889698; 0.315092; 0.330386;,
         0.794655; 0.577348; 0.187595;,
         0.794655; 0.577348; 0.187595;,
         0.794655; 0.577348; 0.187595;,
         0.574584; 0.748793; 0.330397;,
         0.574584; 0.748793; 0.330397;,
         0.574584; 0.748793; 0.330397;,
         0.802607; 0.583125;-0.125648;,
         0.802607; 0.583125;-0.125648;,
         0.802607; 0.583125;-0.125648;,
         0.408939;-0.628443; 0.661686;,
         0.408939;-0.628443; 0.661686;,
         0.408939;-0.628443; 0.661686;,
         0.491120;-0.356821; 0.794658;,
         0.491120;-0.356821; 0.794658;,
         0.491120;-0.356821; 0.794658;,
         0.268034;-0.194736; 0.943523;,
         0.268034;-0.194736; 0.943523;,
         0.268034;-0.194736; 0.943523;,
         0.724044;-0.194734; 0.661694;,
         0.724044;-0.194734; 0.661694;,
         0.724044;-0.194734; 0.661694;,
        -0.471317;-0.583121; 0.661687;,
        -0.471317;-0.583121; 0.661687;,
        -0.471317;-0.583121; 0.661687;,
        -0.187594;-0.577345; 0.794658;,
        -0.187594;-0.577345; 0.794658;,
        -0.187594;-0.577345; 0.794658;,
        -0.102381;-0.315090; 0.943524;,
        -0.102381;-0.315090; 0.943524;,
        -0.102381;-0.315090; 0.943524;,
         0.038547;-0.748789; 0.661687;,
         0.038547;-0.748789; 0.661687;,
         0.038547;-0.748789; 0.661687;,
        -0.700228; 0.268049; 0.661688;,
        -0.700228; 0.268049; 0.661688;,
        -0.700228; 0.268049; 0.661688;,
        -0.607061; 0.000000; 0.794655;,
        -0.607061; 0.000000; 0.794655;,
        -0.607061; 0.000000; 0.794655;,
        -0.331304; 0.000000; 0.943524;,
        -0.331304; 0.000000; 0.943524;,
        -0.331304; 0.000000; 0.943524;,
        -0.700228;-0.268049; 0.661688;,
        -0.700228;-0.268049; 0.661688;,
        -0.700228;-0.268049; 0.661688;,
         0.038547; 0.748789; 0.661686;,
         0.038547; 0.748789; 0.661686;,
         0.038547; 0.748789; 0.661686;,
        -0.187594; 0.577345; 0.794658;,
        -0.187594; 0.577345; 0.794658;,
        -0.187594; 0.577345; 0.794658;,
        -0.102381; 0.315089; 0.943524;,
        -0.102381; 0.315089; 0.943524;,
        -0.102381; 0.315089; 0.943524;,
        -0.471318; 0.583121; 0.661687;,
        -0.471318; 0.583121; 0.661687;,
        -0.471318; 0.583121; 0.661687;,
         0.724044; 0.194734; 0.661694;,
         0.724044; 0.194734; 0.661694;,
         0.724044; 0.194734; 0.661694;,
         0.491120; 0.356821; 0.794657;,
         0.491120; 0.356821; 0.794657;,
         0.491120; 0.356821; 0.794657;,
         0.268034; 0.194736; 0.943523;,
         0.268034; 0.194736; 0.943523;,
         0.268034; 0.194736; 0.943523;,
         0.408939; 0.628443; 0.661686;,
         0.408939; 0.628443; 0.661686;,
         0.408939; 0.628443; 0.661686;,
         0.000000;-0.000000; 1.000000;,
         0.000000;-0.000000; 1.000000;,
         0.000000;-0.000000; 1.000000;,
         0.000000;-0.000000; 1.000000;,
        -1.000000; 0.000001; 0.000000;,
        -1.000000; 0.000001; 0.000000;,
        -1.000000; 0.000001; 0.000000;,
        -1.000000; 0.000001; 0.000000;,
         0.000000; 1.000000; 0.000000;,
         0.000000; 1.000000; 0.000000;,
         0.000000; 1.000000; 0.000000;,
         0.000000; 1.000000; 0.000000;,
         1.000000; 0.000000;-0.000000;,
         1.000000; 0.000000;-0.000000;,
         1.000000; 0.000000;-0.000000;,
         1.000000; 0.000000;-0.000000;,
        -0.000000;-1.000000;-0.000000;,
        -0.000000;-1.000000;-0.000000;,
        -0.000000;-1.000000;-0.000000;,
        -0.000000;-1.000000;-0.000000;,
        -0.000000;-1.000000; 0.000000;,
        -0.000000;-1.000000; 0.000000;,
        -0.000000;-1.000000; 0.000000;,
        -0.000000;-1.000000; 0.000000;,
         0.802511; 0.000000;-0.596638;,
         0.802511; 0.000000;-0.596638;,
         0.802511; 0.000000;-0.596638;,
         0.802511; 0.000000;-0.596638;,
         0.000000; 1.000000;-0.000000;,
         0.000000; 1.000000;-0.000000;,
         0.000000; 1.000000;-0.000000;,
         0.000000; 1.000000;-0.000000;,
        -0.802509; 0.000001; 0.596639;,
        -0.802509; 0.000001; 0.596639;,
        -0.802509; 0.000001; 0.596639;,
        -0.802509; 0.000001; 0.596639;,
        -0.611287; 0.000000; 0.791409;,
        -0.611287; 0.000000; 0.791409;,
        -0.611287; 0.000000; 0.791409;,
        -0.611287; 0.000000; 0.791409;,
         0.000000; 1.000000;-0.000000;,
         0.000000; 1.000000;-0.000000;,
         0.000000; 1.000000;-0.000000;,
         0.000000; 1.000000;-0.000000;,
         0.611287; 0.000000;-0.791409;,
         0.611287; 0.000000;-0.791409;,
         0.611287; 0.000000;-0.791409;,
         0.611287; 0.000000;-0.791409;,
        -0.000000;-1.000000; 0.000000;,
        -0.000000;-1.000000; 0.000000;,
        -0.000000;-1.000000; 0.000000;,
        -0.000000;-1.000000; 0.000000;,
        -0.000000;-1.000000; 0.000001;,
        -0.000000;-1.000000; 0.000001;,
        -0.000000;-1.000000; 0.000001;,
        -0.000000;-1.000000; 0.000001;,
         0.348424; 0.000000;-0.937337;,
         0.348424; 0.000000;-0.937337;,
         0.348424; 0.000000;-0.937337;,
         0.348424; 0.000000;-0.937337;,
         0.000000; 1.000000;-0.000001;,
         0.000000; 1.000000;-0.000001;,
         0.000000; 1.000000;-0.000001;,
         0.000000; 1.000000;-0.000001;,
        -0.348424; 0.000000; 0.937337;,
        -0.348424; 0.000000; 0.937337;,
        -0.348424; 0.000000; 0.937337;,
        -0.348424; 0.000000; 0.937337;,
        -0.000000; 0.000000;-1.000000;,
        -0.000000; 0.000000;-1.000000;,
        -0.000000; 0.000000;-1.000000;,
        -0.000000; 0.000000;-1.000000;;
        194;
        3;0;1;2;,
        3;3;4;5;,
        3;6;7;8;,
        3;9;10;11;,
        3;12;13;14;,
        3;15;16;17;,
        3;18;19;20;,
        3;21;22;23;,
        3;24;25;26;,
        3;27;28;29;,
        3;30;31;32;,
        3;33;34;35;,
        3;36;37;38;,
        3;39;40;41;,
        3;42;43;44;,
        3;45;46;47;,
        3;48;49;50;,
        3;51;52;53;,
        3;54;55;56;,
        3;57;58;59;,
        3;60;61;62;,
        3;63;64;65;,
        3;66;67;68;,
        3;69;70;71;,
        3;72;73;74;,
        3;75;76;77;,
        3;78;79;80;,
        3;81;82;83;,
        3;84;85;86;,
        3;87;88;89;,
        3;90;91;92;,
        3;93;94;95;,
        3;96;97;98;,
        3;99;100;101;,
        3;102;103;104;,
        3;105;106;107;,
        3;108;109;110;,
        3;111;112;113;,
        3;114;115;116;,
        3;117;118;119;,
        3;120;121;122;,
        3;123;124;125;,
        3;126;127;128;,
        3;129;130;131;,
        3;132;133;134;,
        3;135;136;137;,
        3;138;139;140;,
        3;141;142;143;,
        3;144;145;146;,
        3;147;148;149;,
        3;150;151;152;,
        3;153;154;155;,
        3;156;157;158;,
        3;159;160;161;,
        3;162;163;164;,
        3;165;166;167;,
        3;168;169;170;,
        3;171;172;173;,
        3;174;175;176;,
        3;177;178;179;,
        3;180;181;182;,
        3;183;184;185;,
        3;186;187;188;,
        3;189;190;191;,
        4;192;193;194;195;,
        4;196;197;198;199;,
        4;200;201;202;203;,
        4;204;205;206;207;,
        4;208;209;210;211;,
        4;212;213;214;215;,
        4;216;217;218;219;,
        4;220;221;222;223;,
        4;224;225;226;227;,
        4;228;229;230;231;,
        4;232;233;234;235;,
        4;236;237;238;239;,
        4;240;241;242;243;,
        4;244;245;246;247;,
        4;248;249;250;251;,
        4;252;253;254;255;,
        4;256;257;258;259;,
        4;260;261;262;263;,
        4;264;265;266;267;,
        4;268;269;270;271;,
        4;272;273;274;275;,
        4;276;277;278;279;,
        4;280;281;282;283;,
        4;284;285;286;287;,
        4;288;289;290;291;,
        4;292;293;294;295;,
        4;296;297;298;299;,
        4;300;301;302;303;,
        4;304;305;306;307;,
        4;308;309;310;311;,
        4;312;313;314;315;,
        4;316;317;318;319;,
        3;320;321;322;,
        3;323;324;325;,
        3;326;327;328;,
        3;329;330;331;,
        3;332;333;334;,
        3;335;336;337;,
        3;338;339;340;,
        3;341;342;343;,
        3;344;345;346;,
        3;347;348;349;,
        3;350;351;352;,
        3;353;354;355;,
        3;356;357;358;,
        3;359;360;361;,
        3;362;363;364;,
        3;365;366;367;,
        3;368;369;370;,
        3;371;372;373;,
        3;374;375;376;,
        3;377;378;379;,
        3;380;381;382;,
        3;383;384;385;,
        3;386;387;388;,
        3;389;390;391;,
        3;392;393;394;,
        3;395;396;397;,
        3;398;399;400;,
        3;401;402;403;,
        3;404;405;406;,
        3;407;408;409;,
        3;410;411;412;,
        3;413;414;415;,
        3;416;417;418;,
        3;419;420;421;,
        3;422;423;424;,
        3;425;426;427;,
        3;428;429;430;,
        3;431;432;433;,
        3;434;435;436;,
        3;437;438;439;,
        3;440;441;442;,
        3;443;444;445;,
        3;446;447;448;,
        3;449;450;451;,
        3;452;453;454;,
        3;455;456;457;,
        3;458;459;460;,
        3;461;462;463;,
        3;464;465;466;,
        3;467;468;469;,
        3;470;471;472;,
        3;473;474;475;,
        3;476;477;478;,
        3;479;480;481;,
        3;482;483;484;,
        3;485;486;487;,
        3;488;489;490;,
        3;491;492;493;,
        3;494;495;496;,
        3;497;498;499;,
        3;500;501;502;,
        3;503;504;505;,
        3;506;507;508;,
        3;509;510;511;,
        3;512;513;514;,
        3;515;516;517;,
        3;518;519;520;,
        3;521;522;523;,
        3;524;525;526;,
        3;527;528;529;,
        3;530;531;532;,
        3;533;534;535;,
        3;536;537;538;,
        3;539;540;541;,
        3;542;543;544;,
        3;545;546;547;,
        3;548;549;550;,
        3;551;552;553;,
        3;554;555;556;,
        3;557;558;559;,
        4;560;561;562;563;,
        4;564;565;566;567;,
        4;568;569;570;571;,
        4;572;573;574;575;,
        4;576;577;578;579;,
        4;580;581;582;583;,
        4;584;585;586;587;,
        4;588;589;590;591;,
        4;592;593;594;595;,
        4;596;597;598;599;,
        4;600;601;602;603;,
        4;604;605;606;607;,
        4;608;609;610;611;,
        4;612;613;614;615;,
        4;616;617;618;619;,
        4;620;621;622;623;,
        4;624;625;626;627;,
        4;628;629;630;631;;
      } //End of Cylinder_001 Normals
      MeshMaterialList { //Cylinder_001 Material List
        1;
        194;
        0,
        0,
        0,
        0,
        0,
        0,
        0,
        0,
        0,
        0,
        0,
        0,
        0,
        0,
        0,
        0,
        0,
        0,
        0,
        0,
        0,
        0,
        0,
        0,
        0,
        0,
        0,
        0,
        0,
        0,
        0,
        0,
        0,
        0,
        0,
        0,
        0,
        0,
        0,
        0,
        0,
        0,
        0,
        0,
        0,
        0,
        0,
        0,
        0,
        0,
        0,
        0,
        0,
        0,
        0,
        0,
        0,
        0,
        0,
        0,
        0,
        0,
        0,
        0,
        0,
        0,
        0,
        0,
        0,
        0,
        0,
        0,
        0,
        0,
        0,
        0,
        0,
        0,
        0,
        0,
        0,
        0,
        0,
        0,
        0,
        0,
        0,
        0,
        0,
        0,
        0,
        0,
        0,
        0,
        0,
        0,
        0,
        0,
        0,
        0,
        0,
        0,
        0,
        0,
        0,
        0,
        0,
        0,
        0,
        0,
        0,
        0,
        0,
        0,
        0,
        0,
        0,
        0,
        0,
        0,
        0,
        0,
        0,
        0,
        0,
        0,
        0,
        0,
        0,
        0,
        0,
        0,
        0,
        0,
        0,
        0,
        0,
        0,
        0,
        0,
        0,
        0,
        0,
        0,
        0,
        0,
        0,
        0,
        0,
        0,
        0,
        0,
        0,
        0,
        0,
        0,
        0,
        0,
        0,
        0,
        0,
        0,
        0,
        0,
        0,
        0,
        0,
        0,
        0,
        0,
        0,
        0,
        0,
        0,
        0,
        0,
        0,
        0,
        0,
        0,
        0,
        0,
        0,
        0,
        0,
        0,
        0,
        0,
        0,
        0,
        0,
        0,
        0,
        0;;
        Material Material {
           0.640000; 0.198424; 0.058417; 1.000000;;
           96.078431;
           0.500000; 0.500000; 0.500000;;
           0.000000; 0.000000; 0.000000;;
        }
      } //End of Cylinder_001 Material List
    } //End of Cylinder_001 Mesh
  } //End of Cylinder
  Frame Cube {
    FrameTransformMatrix {
       1.000000, 0.000000, 0.000000, 0.000000,
       0.000000, 1.000000, 0.000000, 0.000000,
       0.000000, 0.000000, 1.000000, 0.000000,
       0.282371, 0.112290, 2.665096, 1.000000;;
    }
    Mesh { //Cube_001 Mesh
      126;
       1.285072;-0.340121;-0.594453;,
       1.494229; 0.078194;-0.594453;,
       1.285072; 0.078194;-0.594453;,
       1.703387;-0.340121;-0.594453;,
       1.703387; 0.078194;-0.594453;,
       1.494229; 0.078194;-0.594453;,
       1.703387;-0.340121;-0.594453;,
       1.703387; 0.078194;-0.385296;,
       1.703387; 0.078194;-0.594453;,
       1.703387;-0.340121;-0.176139;,
       1.703387; 0.078194;-0.176139;,
       1.703387; 0.078194;-0.385296;,
       1.285072;-0.340121;-0.176139;,
       1.285072; 0.078194;-0.385296;,
       1.285072; 0.078194;-0.176139;,
       1.285072;-0.340121;-0.594453;,
       1.285072; 0.078194;-0.594453;,
       1.285072; 0.078194;-0.385296;,
       1.494229; 0.353223;-0.385296;,
       1.494229; 0.078194;-0.594453;,
       1.703387; 0.078194;-0.594453;,
       1.703387; 0.078194;-0.385296;,
       1.494229; 0.295421;-0.176139;,
       1.494229; 0.353223;-0.385296;,
       1.703387; 0.078194;-0.385296;,
       1.703387; 0.078194;-0.176139;,
       1.285072; 0.078194;-0.385296;,
       1.285072; 0.078194;-0.594453;,
       1.494229; 0.078194;-0.594453;,
       1.494229; 0.353223;-0.385296;,
       1.285072; 0.078194;-0.176139;,
       1.285072; 0.078194;-0.385296;,
       1.494229; 0.353223;-0.385296;,
       1.494229; 0.295421;-0.176139;,
       1.638142; 0.029993; 0.057815;,
       1.494229; 0.295421;-0.176139;,
       1.703387; 0.078194;-0.176139;,
       1.285072; 0.078194; 0.116866;,
       1.285072; 0.078194;-0.176139;,
       1.494229; 0.295421;-0.176139;,
       1.494229;-0.659922;-0.385296;,
       1.494229;-0.340121;-0.176139;,
       1.703387;-0.340121;-0.176139;,
       1.703387;-0.340121;-0.385296;,
       1.494229;-0.340121;-0.594453;,
       1.494229;-0.659922;-0.385296;,
       1.703387;-0.340121;-0.385296;,
       1.703387;-0.340121;-0.594453;,
       1.285072;-0.340121;-0.385296;,
       1.285072;-0.340121;-0.176139;,
       1.494229;-0.340121;-0.176139;,
       1.494229;-0.659922;-0.385296;,
       1.285072;-0.340121;-0.594453;,
       1.285072;-0.340121;-0.385296;,
       1.494229;-0.659922;-0.385296;,
       1.494229;-0.340121;-0.594453;,
       1.209203;-0.340121; 0.174605;,
       1.494229;-0.340121;-0.176139;,
       1.285072;-0.340121;-0.176139;,
       1.761033;-0.340121; 0.183806;,
       1.703387;-0.340121;-0.176139;,
       1.494229;-0.340121;-0.176139;,
       1.494229; 0.078194;-0.594453;,
       1.494229;-0.340121;-0.594453;,
       1.703387;-0.340121;-0.594453;,
       1.494229; 0.078194;-0.594453;,
       1.285072;-0.340121;-0.594453;,
       1.494229;-0.340121;-0.594453;,
       1.703387; 0.078194;-0.385296;,
       1.703387;-0.340121;-0.385296;,
       1.703387;-0.340121;-0.176139;,
       1.703387; 0.078194;-0.385296;,
       1.703387;-0.340121;-0.594453;,
       1.703387;-0.340121;-0.385296;,
       1.285072; 0.078194;-0.385296;,
       1.285072;-0.340121;-0.385296;,
       1.285072;-0.340121;-0.594453;,
       1.285072; 0.078194;-0.385296;,
       1.285072;-0.340121;-0.176139;,
       1.285072;-0.340121;-0.385296;,
       1.285072;-0.340121;-0.176139;,
       1.285072; 0.078194;-0.176139;,
       1.285072;-0.130964; 0.116866;,
       1.285072;-0.340121;-0.176139;,
       1.285072;-0.130964; 0.116866;,
       1.209203;-0.340121; 0.174605;,
       1.285072; 0.078194;-0.176139;,
       1.285072; 0.078194; 0.116866;,
       1.285072;-0.130964; 0.116866;,
       1.703387; 0.078194;-0.176139;,
       1.703387;-0.340121;-0.176139;,
       1.703387;-0.130964; 0.116866;,
       1.703387; 0.078194;-0.176139;,
       1.703387;-0.130964; 0.116866;,
       1.638142; 0.029993; 0.057815;,
       1.703387;-0.340121;-0.176139;,
       1.761033;-0.340121; 0.183806;,
       1.703387;-0.130964; 0.116866;,
       1.494229;-0.130964; 0.241415;,
       1.285072;-0.130964; 0.116866;,
       1.285072; 0.078194; 0.116866;,
       1.494229; 0.078194; 0.116866;,
       1.703387;-0.130964; 0.116866;,
       1.494229;-0.130964; 0.241415;,
       1.494229; 0.078194; 0.116866;,
       1.638142; 0.029993; 0.057815;,
       1.494229;-0.340121; 0.116866;,
       1.209203;-0.340121; 0.174605;,
       1.285072;-0.130964; 0.116866;,
       1.494229;-0.130964; 0.241415;,
       1.761033;-0.340121; 0.183806;,
       1.494229;-0.340121; 0.116866;,
       1.494229;-0.130964; 0.241415;,
       1.703387;-0.130964; 0.116866;,
       1.494229; 0.295421;-0.176139;,
       1.494229; 0.078194; 0.116866;,
       1.285072; 0.078194; 0.116866;,
       1.494229; 0.295421;-0.176139;,
       1.638142; 0.029993; 0.057815;,
       1.494229; 0.078194; 0.116866;,
       1.494229;-0.340121;-0.176139;,
       1.494229;-0.340121; 0.116866;,
       1.761033;-0.340121; 0.183806;,
       1.494229;-0.340121;-0.176139;,
       1.209203;-0.340121; 0.174605;,
       1.494229;-0.340121; 0.116866;;
      38;
      3;0;1;2;,
      3;3;4;5;,
      3;6;7;8;,
      3;9;10;11;,
      3;12;13;14;,
      3;15;16;17;,
      4;18;19;20;21;,
      4;22;23;24;25;,
      4;26;27;28;29;,
      4;30;31;32;33;,
      3;34;35;36;,
      3;37;38;39;,
      4;40;41;42;43;,
      4;44;45;46;47;,
      4;48;49;50;51;,
      4;52;53;54;55;,
      3;56;57;58;,
      3;59;60;61;,
      3;62;63;64;,
      3;65;66;67;,
      3;68;69;70;,
      3;71;72;73;,
      3;74;75;76;,
      3;77;78;79;,
      3;80;81;82;,
      3;83;84;85;,
      3;86;87;88;,
      3;89;90;91;,
      3;92;93;94;,
      3;95;96;97;,
      4;98;99;100;101;,
      4;102;103;104;105;,
      4;106;107;108;109;,
      4;110;111;112;113;,
      3;114;115;116;,
      3;117;118;119;,
      3;120;121;122;,
      3;123;124;125;;
      MeshNormals { //Cube_001 Normals
        126;
         0.000000; 0.000000;-1.000000;,
         0.000000; 0.000000;-1.000000;,
         0.000000; 0.000000;-1.000000;,
         0.000000; 0.000000;-1.000000;,
         0.000000; 0.000000;-1.000000;,
         0.000000; 0.000000;-1.000000;,
         1.000000;-0.000000; 0.000000;,
         1.000000;-0.000000; 0.000000;,
         1.000000;-0.000000; 0.000000;,
         1.000000;-0.000001;-0.000001;,
         1.000000;-0.000001;-0.000001;,
         1.000000;-0.000001;-0.000001;,
        -1.000000; 0.000000; 0.000000;,
        -1.000000; 0.000000; 0.000000;,
        -1.000000; 0.000000; 0.000000;,
        -1.000000; 0.000000; 0.000000;,
        -1.000000; 0.000000; 0.000000;,
        -1.000000; 0.000000; 0.000000;,
         0.481494; 0.732344;-0.481494;,
         0.481494; 0.732344;-0.481494;,
         0.481494; 0.732344;-0.481494;,
         0.481494; 0.732344;-0.481494;,
         0.758986; 0.644979; 0.089122;,
         0.758986; 0.644979; 0.089122;,
         0.758986; 0.644979; 0.089122;,
         0.758986; 0.644979; 0.089122;,
        -0.481494; 0.732344;-0.481494;,
        -0.481494; 0.732344;-0.481494;,
        -0.481494; 0.732344;-0.481494;,
        -0.481494; 0.732344;-0.481494;,
        -0.758986; 0.644979; 0.089122;,
        -0.758986; 0.644979; 0.089122;,
        -0.758986; 0.644979; 0.089122;,
        -0.758986; 0.644979; 0.089122;,
         0.681227; 0.655919; 0.325116;,
         0.681227; 0.655919; 0.325116;,
         0.681227; 0.655919; 0.325116;,
        -0.720361; 0.693599; 0.000000;,
        -0.720361; 0.693599; 0.000000;,
        -0.720361; 0.693599; 0.000000;,
         0.519105;-0.679014; 0.519105;,
         0.519105;-0.679014; 0.519105;,
         0.519105;-0.679014; 0.519105;,
         0.519105;-0.679014; 0.519105;,
         0.519105;-0.679014;-0.519105;,
         0.519105;-0.679014;-0.519105;,
         0.519105;-0.679014;-0.519105;,
         0.519105;-0.679014;-0.519105;,
        -0.519105;-0.679014; 0.519105;,
        -0.519105;-0.679014; 0.519105;,
        -0.519105;-0.679014; 0.519105;,
        -0.519105;-0.679014; 0.519105;,
        -0.519105;-0.679014;-0.519105;,
        -0.519105;-0.679014;-0.519105;,
        -0.519105;-0.679014;-0.519105;,
        -0.519105;-0.679014;-0.519105;,
        -0.000001;-1.000000;-0.000000;,
        -0.000001;-1.000000;-0.000000;,
        -0.000001;-1.000000;-0.000000;,
        -0.000001;-1.000000; 0.000000;,
        -0.000001;-1.000000; 0.000000;,
        -0.000001;-1.000000; 0.000000;,
         0.000000; 0.000000;-1.000000;,
         0.000000; 0.000000;-1.000000;,
         0.000000; 0.000000;-1.000000;,
         0.000000;-0.000000;-1.000000;,
         0.000000;-0.000000;-1.000000;,
         0.000000;-0.000000;-1.000000;,
         1.000000; 0.000000; 0.000001;,
         1.000000; 0.000000; 0.000001;,
         1.000000; 0.000000; 0.000001;,
         1.000000; 0.000000; 0.000000;,
         1.000000; 0.000000; 0.000000;,
         1.000000; 0.000000; 0.000000;,
        -1.000000;-0.000000;-0.000000;,
        -1.000000;-0.000000;-0.000000;,
        -1.000000;-0.000000;-0.000000;,
        -1.000000; 0.000000;-0.000001;,
        -1.000000; 0.000000;-0.000001;,
        -1.000000; 0.000000;-0.000001;,
        -1.000000; 0.000000; 0.000000;,
        -1.000000; 0.000000; 0.000000;,
        -1.000000; 0.000000; 0.000000;,
        -0.937156; 0.283980;-0.202715;,
        -0.937156; 0.283980;-0.202715;,
        -0.937156; 0.283980;-0.202715;,
        -1.000000; 0.000000; 0.000000;,
        -1.000000; 0.000000; 0.000000;,
        -1.000000; 0.000000; 0.000000;,
         1.000000;-0.000001; 0.000000;,
         1.000000;-0.000001; 0.000000;,
         1.000000;-0.000001; 0.000000;,
         0.828947; 0.455239; 0.324967;,
         0.828947; 0.455239; 0.324967;,
         0.828947; 0.455239; 0.324967;,
         0.964044; 0.216288;-0.154395;,
         0.964044; 0.216288;-0.154395;,
         0.964044; 0.216288;-0.154395;,
        -0.274406; 0.274406; 0.921631;,
        -0.274406; 0.274406; 0.921631;,
        -0.274406; 0.274406; 0.921631;,
        -0.274406; 0.274406; 0.921631;,
         0.458479; 0.458479; 0.761311;,
         0.458479; 0.458479; 0.761311;,
         0.458479; 0.458479; 0.761311;,
         0.458479; 0.458479; 0.761311;,
        -0.132786;-0.132786; 0.982210;,
        -0.132786;-0.132786; 0.982210;,
        -0.132786;-0.132786; 0.982210;,
        -0.132786;-0.132786; 0.982210;,
         0.119301;-0.119301; 0.985665;,
         0.119301;-0.119301; 0.985665;,
         0.119301;-0.119301; 0.985665;,
         0.119301;-0.119301; 0.985665;,
         0.000000; 0.803312; 0.595559;,
         0.000000; 0.803312; 0.595559;,
         0.000000; 0.803312; 0.595559;,
         0.456741; 0.714626; 0.529809;,
         0.456741; 0.714626; 0.529809;,
         0.456741; 0.714626; 0.529809;,
        -0.000000;-1.000000; 0.000000;,
        -0.000000;-1.000000; 0.000000;,
        -0.000000;-1.000000; 0.000000;,
        -0.000000;-1.000000; 0.000000;,
        -0.000000;-1.000000; 0.000000;,
        -0.000000;-1.000000; 0.000000;;
        38;
        3;0;1;2;,
        3;3;4;5;,
        3;6;7;8;,
        3;9;10;11;,
        3;12;13;14;,
        3;15;16;17;,
        4;18;19;20;21;,
        4;22;23;24;25;,
        4;26;27;28;29;,
        4;30;31;32;33;,
        3;34;35;36;,
        3;37;38;39;,
        4;40;41;42;43;,
        4;44;45;46;47;,
        4;48;49;50;51;,
        4;52;53;54;55;,
        3;56;57;58;,
        3;59;60;61;,
        3;62;63;64;,
        3;65;66;67;,
        3;68;69;70;,
        3;71;72;73;,
        3;74;75;76;,
        3;77;78;79;,
        3;80;81;82;,
        3;83;84;85;,
        3;86;87;88;,
        3;89;90;91;,
        3;92;93;94;,
        3;95;96;97;,
        4;98;99;100;101;,
        4;102;103;104;105;,
        4;106;107;108;109;,
        4;110;111;112;113;,
        3;114;115;116;,
        3;117;118;119;,
        3;120;121;122;,
        3;123;124;125;;
      } //End of Cube_001 Normals
      MeshMaterialList { //Cube_001 Material List
        1;
        38;
        0,
        0,
        0,
        0,
        0,
        0,
        0,
        0,
        0,
        0,
        0,
        0,
        0,
        0,
        0,
        0,
        0,
        0,
        0,
        0,
        0,
        0,
        0,
        0,
        0,
        0,
        0,
        0,
        0,
        0,
        0,
        0,
        0,
        0,
        0,
        0,
        0,
        0;;
        Material Material_001 {
           0.640000; 0.357502; 0.093800; 1.000000;;
           96.078431;
           0.362464; 0.000000; 0.500000;;
           0.000000; 0.000000; 0.000000;;
        }
      } //End of Cube_001 Material List
      MeshTextureCoords { //Cube_001 UV Coordinates
        126;
         1.000000; 0.000000;,
         1.000000; 1.000000;,
         0.000000; 1.000000;,
         1.000000; 0.000000;,
         1.000000; 1.000000;,
         0.000000; 1.000000;,
         1.000000; 0.000000;,
         1.000000; 1.000000;,
         0.000000; 1.000000;,
         1.000000; 0.000000;,
         1.000000; 1.000000;,
         0.000000; 1.000000;,
         1.000000; 0.000000;,
         1.000000; 1.000000;,
         0.000000; 1.000000;,
         1.000000; 0.000000;,
         1.000000; 1.000000;,
         0.000000; 1.000000;,
         0.000000; 0.000000;,
         1.000000; 0.000000;,
         1.000000; 1.000000;,
         0.000000; 1.000000;,
         0.000000; 0.000000;,
         1.000000; 0.000000;,
         1.000000; 1.000000;,
         0.000000; 1.000000;,
         0.000000; 0.000000;,
         1.000000; 0.000000;,
         1.000000; 1.000000;,
         0.000000; 1.000000;,
         0.000000; 0.000000;,
         1.000000; 0.000000;,
         1.000000; 1.000000;,
         0.000000; 1.000000;,
         1.000000; 0.000000;,
         1.000000; 1.000000;,
         0.000000; 1.000000;,
         1.000000; 0.000000;,
         1.000000; 1.000000;,
         0.000000; 1.000000;,
         0.000000; 0.000000;,
         1.000000; 0.000000;,
         1.000000; 1.000000;,
         0.000000; 1.000000;,
         0.000000; 0.000000;,
         1.000000; 0.000000;,
         1.000000; 1.000000;,
         0.000000; 1.000000;,
         0.000000; 0.000000;,
         1.000000; 0.000000;,
         1.000000; 1.000000;,
         0.000000; 1.000000;,
         0.000000; 0.000000;,
         1.000000; 0.000000;,
         1.000000; 1.000000;,
         0.000000; 1.000000;,
         1.000000; 0.000000;,
         1.000000; 1.000000;,
         0.000000; 1.000000;,
         1.000000; 0.000000;,
         1.000000; 1.000000;,
         0.000000; 1.000000;,
         1.000000; 0.000000;,
         1.000000; 1.000000;,
         0.000000; 1.000000;,
         1.000000; 0.000000;,
         1.000000; 1.000000;,
         0.000000; 1.000000;,
         1.000000; 0.000000;,
         1.000000; 1.000000;,
         0.000000; 1.000000;,
         1.000000; 0.000000;,
         1.000000; 1.000000;,
         0.000000; 1.000000;,
         1.000000; 0.000000;,
         1.000000; 1.000000;,
         0.000000; 1.000000;,
         1.000000; 0.000000;,
         1.000000; 1.000000;,
         0.000000; 1.000000;,
         1.000000; 0.000000;,
         1.000000; 1.000000;,
         0.000000; 1.000000;,
         1.000000; 0.000000;,
         1.000000; 1.000000;,
         0.000000; 1.000000;,
         1.000000; 0.000000;,
         1.000000; 1.000000;,
         0.000000; 1.000000;,
         1.000000; 0.000000;,
         1.000000; 1.000000;,
         0.000000; 1.000000;,
         1.000000; 0.000000;,
         1.000000; 1.000000;,
         0.000000; 1.000000;,
         1.000000; 0.000000;,
         1.000000; 1.000000;,
         0.000000; 1.000000;,
         0.000000; 0.000000;,
         1.000000; 0.000000;,
         1.000000; 1.000000;,
         0.000000; 1.000000;,
         0.000000; 0.000000;,
         1.000000; 0.000000;,
         1.000000; 1.000000;,
         0.000000; 1.000000;,
         0.000000; 0.000000;,
         1.000000; 0.000000;,
         1.000000; 1.000000;,
         0.000000; 1.000000;,
         0.000000; 0.000000;,
         1.000000; 0.000000;,
         1.000000; 1.000000;,
         0.000000; 1.000000;,
         1.000000; 0.000000;,
         1.000000; 1.000000;,
         0.000000; 1.000000;,
         1.000000; 0.000000;,
         1.000000; 1.000000;,
         0.000000; 1.000000;,
         1.000000; 0.000000;,
         1.000000; 1.000000;,
         0.000000; 1.000000;,
         1.000000; 0.000000;,
         1.000000; 1.000000;,
         0.000000; 1.000000;;
      } //End of Cube_001 UV Coordinates
    } //End of Cube_001 Mesh
  } //End of Cube
} //End of Root Frame
